<?xml version="1.0" encoding="utf-8"?>
<!-- Generator: Adobe Illustrator 18.1.0, SVG Export Plug-In . SVG Version: 6.00 Build 0)  -->
<svg version="1.1" id="Layer_1" xmlns="http://www.w3.org/2000/svg" xmlns:xlink="http://www.w3.org/1999/xlink" x="0px" y="0px"
	 viewBox="0 0 180 115.2" enable-background="new 0 0 180 115.2" xml:space="preserve" preserveAspectRatio="xMinYMin meet">
<path id="close" fill="#F36B37" d="M45.2,115.2c-4.3-4.3-8.5-8.5-12.8-12.8c15.2-14.1,30.7-28.2,48.3-44.8
	C63.1,41.1,47.6,26.9,32.4,12.8C36.7,8.5,40.9,4.3,45.2,0C59.3,15.2,73.5,30.7,90,48.3c16.5-17.8,30.7-33.1,44.8-48.3
	c4.3,4.3,8.5,8.5,12.8,12.8c-15.2,14.1-30.7,28.2-48.3,44.8c17.8,16.5,33.1,30.7,48.3,44.8c-4.3,4.3-8.5,8.5-12.8,12.8
	C120.7,100,106.5,84.5,90,66.9C73.6,84.5,59.3,100,45.2,115.2z"/>
</svg>
