<?xml version="1.0" encoding="utf-8"?>
<!-- Generator: Adobe Illustrator 18.1.0, SVG Export Plug-In . SVG Version: 6.00 Build 0)  -->
<svg version="1.1" id="Layer_1" xmlns="http://www.w3.org/2000/svg" xmlns:xlink="http://www.w3.org/1999/xlink" x="0px" y="0px"
	 viewBox="0 0 62 62" enable-background="new 0 0 62 62" xml:space="preserve" preserveAspectRatio="xMinYMin meet">
<path id="close" fill="#000000" d="M6.9,62c-2.3-2.3-4.6-4.6-6.9-6.9C8.2,47.5,16.5,39.9,26,31C16.5,22.1,8.2,14.5,0,6.9
	C2.3,4.6,4.6,2.3,6.9,0C14.5,8.2,22.1,16.5,31,26c8.9-9.6,16.5-17.8,24.1-26c2.3,2.3,4.6,4.6,6.9,6.9C53.8,14.5,45.5,22.1,36,31
	c9.6,8.9,17.8,16.5,26,24.1c-2.3,2.3-4.6,4.6-6.9,6.9C47.5,53.8,39.9,45.5,31,36C22.2,45.5,14.5,53.8,6.9,62z"/>
</svg>
