<?xml version="1.0" encoding="utf-8"?>
<!-- Generator: Adobe Illustrator 18.1.0, SVG Export Plug-In . SVG Version: 6.00 Build 0)  -->
<svg version="1.1" id="Layer_1" xmlns="http://www.w3.org/2000/svg" xmlns:xlink="http://www.w3.org/1999/xlink" x="0px" y="0px"
	 viewBox="0 0 62 62" enable-background="new 0 0 62 62" xml:space="preserve" preserveAspectRatio="xMinYMin meet">
<path id="fb" fill="#FFFFFF" d="M31,0C13.9,0,0,13.9,0,31c0,17.1,13.9,31,31,31s31-13.9,31-31C62,13.9,48.1,0,31,0z M31,60.5
	C14.7,60.5,1.5,47.3,1.5,31C1.5,14.7,14.7,1.5,31,1.5S60.5,14.7,60.5,31C60.5,47.3,47.3,60.5,31,60.5z M26.3,20.1c0,0.9,0,4.9,0,4.9
	h-3.6v6h3.6v17.8h7.4V31h4.9c0,0,0.5-2.9,0.7-6c-0.6,0-5.6,0-5.6,0s0-3.5,0-4.1c0-0.6,0.8-1.4,1.6-1.4c0.8,0,2.5,0,4,0
	c0-0.8,0-3.6,0-6.2c-2.1,0-4.4,0-5.5,0C26.1,13.2,26.3,19.2,26.3,20.1z"/>
</svg>
