<?xml version="1.0" encoding="utf-8"?>
<!-- Generator: Adobe Illustrator 18.1.0, SVG Export Plug-In . SVG Version: 6.00 Build 0)  -->
<svg version="1.1" id="Layer_1" xmlns="http://www.w3.org/2000/svg" xmlns:xlink="http://www.w3.org/1999/xlink" x="0px" y="0px"
	 viewBox="0 0 62 62" enable-background="new 0 0 62 62" xml:space="preserve" preserveAspectRatio="xMinYMin meet">
<path id="arrow" fill="#F36B37" d="M13,22h5.8l12.5,12.4L43.6,22H49L31.3,40L13,22z"/>
</svg>
